IO, tidy and transform
…
---

## Summary tables 

.question[
Is each of the following a dataset or a summary table?
]

.midi[
.pull-left[

```
## # A tibble: 87 x 3
##   name           height  mass
##   <chr>           <int> <dbl>
## 1 Luke Skywalker    172    77
## 2 C-3PO             167    75
## 3 R2-D2              96    32
## 4 Darth Vader       202   136
## 5 Leia Organa       150    49
## 6 Owen Lars         178   120
## # … with 81 more rows
```
…
- First argument is *always* a data frame
- Subsequent arguments say what to do with that data frame
- Always return a data frame

---

## Data: Hotel bookings

- Data from two hotels: one resort and one city hotel
- Observations: Each row represents a hotel booking
<!-- - Goal for original data collection: Development of prediction models to classify a hotel booking's likelihood to be cancelled ([Antonia et al., 2019](https://www.sciencedirect.com/science/article/pii/S2352340918315191#bib5)) -->

```
## # A tibble: 119,390 x 32
##   hotel is_canceled lead_time arrival_date_ye… arrival_date_mo… arrival_date_we… arrival_date_da…
##   <chr>       <dbl>     <dbl>            <dbl> <chr>                       <dbl>            <dbl>
## 1 Reso…           0       342             2015 July                           27                1
## 2 Reso…           0       737             2015 July                           27                1
## 3 Reso…           0         7             2015 July                           27                1
## 4 Reso…           0        13             2015 July                           27                1
## 5 Reso…           0        14             2015 July                           27                1
## 6 Reso…           0        14             2015 July                           27                1
## # … with 119,384 more rows, and 25 more variables: stays_in_weekend_nights <dbl>,
## #   stays_in_week_nights <dbl>, adults <dbl>, children <dbl>, babies <dbl>, meal <chr>,
## #   country <chr>, market_segment <chr>, distribution_channel <chr>, is_repeated_guest <dbl>,
## #   previous_cancellations <dbl>, previous_bookings_not_canceled <dbl>, reserved_room_type <chr>,
## #   assigned_room_type <chr>, booking_changes <dbl>, deposit_type <chr>, agent <chr>,
## #   company <chr>, days_in_waiting_list <dbl>, customer_type <chr>, adr <dbl>,
## #   required_car_parking_spaces <dbl>, total_of_special_requests <dbl>, reservation_status <chr>,
## #   reservation_status_date <date>
```
…
