Transform data
…
---

## Summary tables 

.question[
Is each of the following a dataset or a summary table?
]

.midi[
.pull-left[

```
## # A tibble: 87 × 3
##   name           height  mass
##   <chr>           <int> <dbl>
## 1 Luke Skywalker    172    77
## 2 C-3PO             167    75
## 3 R2-D2              96    32
## 4 Darth Vader       202   136
## 5 Leia Organa       150    49
## 6 Owen Lars         178   120
## # … with 81 more rows
## # ℹ Use `print(n = ...)` to see more rows
```
…
- First argument is *always* a data frame
- Subsequent arguments say what to do with that data frame
- Always return a data frame

---

## Data: Hotel bookings

- Data from two hotels: one resort and one city hotel
- Observations: Each row represents a hotel booking
<!-- - Goal for original data collection: Development of prediction models to classify a hotel booking's likelihood to be cancelled ([Antonia et al., 2019](https://www.sciencedirect.com/science/article/pii/S2352340918315191#bib5)) -->

```
## # A tibble: 119,390 × 32
##   hotel  is_ca…¹ lead_…² arriv…³ arriv…⁴ arriv…⁵ arriv…⁶ stays…⁷ stays…⁸ adults child…⁹ babies meal 
##   <chr>    <dbl>   <dbl>   <dbl> <chr>     <dbl>   <dbl>   <dbl>   <dbl>  <dbl>   <dbl>  <dbl> <chr>
## 1 Resor…       0     342    2015 July         27       1       0       0      2       0      0 BB   
## 2 Resor…       0     737    2015 July         27       1       0       0      2       0      0 BB   
## 3 Resor…       0       7    2015 July         27       1       0       1      1       0      0 BB   
## 4 Resor…       0      13    2015 July         27       1       0       1      1       0      0 BB   
## 5 Resor…       0      14    2015 July         27       1       0       2      2       0      0 BB   
## 6 Resor…       0      14    2015 July         27       1       0       2      2       0      0 BB   
## # … with 119,384 more rows, 19 more variables: country <chr>, market_segment <chr>,
## #   distribution_channel <chr>, is_repeated_guest <dbl>, previous_cancellations <dbl>,
## #   previous_bookings_not_canceled <dbl>, reserved_room_type <chr>, assigned_room_type <chr>,
## #   booking_changes <dbl>, deposit_type <chr>, agent <chr>, company <chr>,
## #   days_in_waiting_list <dbl>, customer_type <chr>, adr <dbl>, required_car_parking_spaces <dbl>,
## #   total_of_special_requests <dbl>, reservation_status <chr>, reservation_status_date <date>, and
## #   abbreviated variable names ¹​is_canceled, ²​lead_time, ³​arrival_date_year, ⁴​arrival_date_month, …
## # ℹ Use `print(n = ...)` to see more rows, and `colnames()` to see all variable names
```
…
