TFA exam - Guiding solution R part
…
The 3 biggest companies are General Electric, Microsoft, Pfizer.

Question 4

For each country find the company with highest profit. What company has the highest profit in Denmark?

Guiding solution:

dat <- companies %>% 
  group_by(country) %>% 
  slice_max(profits, n = 1) %>% 
  print()

## # A tibble: 42 x 7
## # Groups:   country [42]
##    name                      country        category                         sales profits assets marketvalue
##    <chr>                     <chr>          <chr>                            <dbl>   <dbl>  <dbl>       <dbl>
##  1 Natl Australia Bank       Australia      Banking                         15.3      2.69 270.         36.5 
##  2 Erste Bank                Austria        Banking                          7.5      0.27 127.          8.12
##  3 Dexia                     Belgium        Banking                         19.6      1.36 368.         21.6 
##  4 ACE                       Bermuda        Insurance                       10.7      1.39  49.5        12.6 
##  5 Petrobras-Petrsleo Brasil Brazil         Oil & gas operations            22.6      2.29  27.1        35.5 
##  6 Royal Bank of Canada      Canada         Banking                         18.8      2.28 305.         31.8 
##  7 Garmin                    Cayman Islands Technology hardware & equipment  0.570    0.18   0.86        5.19
##  8 PetroChina                China          Oil & gas operations            29.5      5.67  58.4        90.5 
##  9 Den Danske Bank           Denmark        Banking                         12.6      1.57 309.         16.4 
## 10 Nokia                     Finland        Technology hardware & equipment 37.0      4.52  29.2       104.  
## #  with 32 more rows
…
