TFA reexam - Guiding solution R part
…
dat <- read_csv("titanic.csv")

Use the dplyr package in tidyverse to calculate relevant summary tables (data frames) and answer the following questions.

Question 1

Create a new column named male which is true if the person is a male.

Guiding solution:

dat <- dat %>% 
  mutate(male = if_else(sex == "male", TRUE, FALSE))
dat

## # A tibble: 1,309 x 10
##    pclass survived name                      sex      age  fare cabin embarked boat  male 
##     <dbl>    <dbl> <chr>                     <chr>  <dbl> <dbl> <chr> <chr>    <chr> <lgl>
##  1      1        1 Allen, Miss. Elisabeth W female 29    211.  B5    S        2     FALSE
##  2      1        1 Allison, Master. Hudson  male    0.92 152.  C22  S        11    TRUE 
##  3      1        0 Allison, Miss. Helen Lor female  2    152.  C22  S        <NA>  FALSE
##  4      1        0 Allison, Mr. Hudson Josh male   30    152.  C22  S        <NA>  TRUE 
##  5      1        0 Allison, Mrs. Hudson J C female 25    152.  C22  S        <NA>  FALSE
##  6      1        1 Anderson, Mr. Harry       male   48     26.6 E12   S        3     TRUE 
##  7      1        1 Andrews, Miss. Kornelia  female 63     78.0 D7    S        10    FALSE
##  8      1        0 Andrews, Mr. Thomas Jr    male   39      0   A36   S        <NA>  TRUE 
##  9      1        1 Appleton, Mrs. Edward Da female 53     51.5 C101  S        D     FALSE
## 10      1        0 Artagaveytia, Mr. Ramon   male   71     49.5 <NA>  C        <NA>  TRUE 
## #  with 1,299 more rows
…
