TFA exam - Guiding solution
…
Question 2

Which angler has caught most fish in total and in kilograms over all
the years considered?

res <- dat |>
   group_by(Name) |> 
   summarize(
      total_weight = sum(Weight, na.rm = TRUE),
      n_caught = n()
   ) |> 
   arrange(desc(total_weight)) |>
   print() 

## # A tibble: 4,854 × 3
##    Name                         total_weight n_caught
##    <chr>                               <dbl>    <int>
##  1 Grete Danielsen-Christiansen         306.      101
##  2 Bent Kjær                            296.      146
##  3 Univ.Prof. Nanni Nielsen             281.      101
##  4 Nicolai Carlsen                      278.       99
##  5 Ulf Dahl                             266.       81
##  6 Prof. Hjalte Thygesen                259.      159
##  7 Paul Klausen                         244.       88
##  8 Peder Thorsen-Carlsen                224.      157
##  9 Åge Ravn-Overgaard                   214.       78
## 10 Dagny Thygesen                       211.      111
## # ℹ 4,844 more rows

res2 <- res |> 
   arrange(desc(n_caught)) |> 
   print()

## # A tibble: 4,854 × 3
##    Name                       total_weight n_caught
##    <chr>                             <dbl>    <int>
##  1 Prof. Paula Krogh                  26.4      198
##  2 Prof. Hjalte Thygesen             259.       159
##  3 Peder Thorsen-Carlsen             224.       157
##  4 René Larsen                       117.       153
##  5 Tage Clausen-Kristoffersen         63.8      147
##  6 Bent Kjær                         296.       146
##  7 Richard Paulsen                    81.9      143
##  8 Albert Knudsen                     34.6      131
##  9 Jano Kjær                          90.3      124
## 10 Sofia Andersen                     43.3      114
## # ℹ 4,844 more rows
The angler Grete Danielsen-Christiansen have caught and killed the
highest total weight of 306.49 kilograms over all the years considered.
The angler Prof. Paula Krogh have caught the highest number of fish of
198 over all the years considered.

Question 3

Calculate the condition factor for each fish using the formula
Weight*100000/Length^3.

res <- dat |> 
   mutate(Condition = Weight*100000/Length^3) |> 
   print()

## # A tibble: 29,268 × 15
##    Date       Length Weight Place  Method Killed Sex   River Species  Name      Year Month
##    <date>      <dbl>  <dbl> <chr>  <chr>  <lgl>  <chr> <chr> <chr>    <chr>    <dbl> <dbl>
##  1 2015-03-01     58  1.56  Middle Spin   TRUE   <NA>  Karup Seatrout Fru Fri…  2015     3
##  2 2015-03-01     64  2.10  Middle Worm   TRUE   <NA>  Karup Seatrout Mille S…  2015     3
##  3 2015-03-01     53  1.5   Lower  Worm   TRUE   <NA>  Karup Seatrout Thomas …  2015     3
##  4 2015-03-01     59  1.64  Lower  Worm   TRUE   <NA>  Karup Seatrout Alex Kn…  2015     3
##  5 2015-03-01     45  0.729 Lower  Worm   TRUE   <NA>  Karup Seatrout Øjvind …  2015     3
##  6 2015-03-01     44  0.95  Lower  Worm   TRUE   <NA>  Karup Seatrout Prof. L…  2015     3
##  7 2015-03-01     41  0.7   Lower  Worm   TRUE   <NA>  Karup Seatrout Elna Ra…  2015     3
##  8 2015-03-01     52  1.12  Lower  Worm   TRUE   <NA>  Karup Seatrout Elna Ra…  2015     3
##  9 2015-03-01     63  2.00  Lower  Worm   TRUE   <NA>  Karup Seatrout Hjalte …  2015     3
## 10 2015-03-01     71  2.86  Lower  Worm   TRUE   <NA>  Karup Seatrout Dr. Joh…  2015     3
## # ℹ 29,258 more rows
## # ℹ 3 more variables: Week <dbl>, Weekday <chr>, Condition <dbl>
…
Use the weight dataset to update missing weights in the catch
dataset. That is, for each fish, with a missing weight, use the average
weight from the weight dataset for the corresponding length, river,
species and month. Hint: Before joining the datasets, you need to round
the length to an integer.

dat_full <- dat |>
   mutate(Length = round(Length)) |>
   left_join(dat_weight) |> 
   mutate(
      Weight = if_else(is.na(Weight), Avg, Weight)
   ) |> 
   print()

## # A tibble: 29,268 × 17
##    Date       Length Weight Place  Method Killed Sex   River Species  Name      Year Month
##    <date>      <dbl>  <dbl> <chr>  <chr>  <lgl>  <chr> <chr> <chr>    <chr>    <dbl> <dbl>
##  1 2015-03-01     58  1.56  Middle Spin   TRUE   <NA>  Karup Seatrout Fru Fri…  2015     3
##  2 2015-03-01     64  2.10  Middle Worm   TRUE   <NA>  Karup Seatrout Mille S…  2015     3
##  3 2015-03-01     53  1.5   Lower  Worm   TRUE   <NA>  Karup Seatrout Thomas …  2015     3
##  4 2015-03-01     59  1.64  Lower  Worm   TRUE   <NA>  Karup Seatrout Alex Kn…  2015     3
##  5 2015-03-01     45  0.729 Lower  Worm   TRUE   <NA>  Karup Seatrout Øjvind …  2015     3
##  6 2015-03-01     44  0.95  Lower  Worm   TRUE   <NA>  Karup Seatrout Prof. L…  2015     3
##  7 2015-03-01     41  0.7   Lower  Worm   TRUE   <NA>  Karup Seatrout Elna Ra…  2015     3
##  8 2015-03-01     52  1.12  Lower  Worm   TRUE   <NA>  Karup Seatrout Elna Ra…  2015     3
##  9 2015-03-01     63  2.00  Lower  Worm   TRUE   <NA>  Karup Seatrout Hjalte …  2015     3
## 10 2015-03-01     71  2.86  Lower  Worm   TRUE   <NA>  Karup Seatrout Dr. Joh…  2015     3
## # ℹ 29,258 more rows
## # ℹ 5 more variables: Week <dbl>, Weekday <chr>, Avg <dbl>, Lower <dbl>, Upper <dbl>
…
res <- dat |> 
   filter(Species == "Seatrout") |>
   group_by(River, Year, Month) |> 
   summarize(
      n_caught = n()
   ) |> 
   group_by(River, Year) |> 
   mutate(
      catch_pct = n_caught / sum(n_caught)
   ) |> 
   ungroup() |> 
   print()

## # A tibble: 135 × 5
##    River  Year Month n_caught catch_pct
##    <chr> <dbl> <dbl>    <int>     <dbl>
##  1 Karup  2015     3       88   0.0373 
##  2 Karup  2015     4       15   0.00636
##  3 Karup  2015     5       40   0.0170 
##  4 Karup  2015     6      182   0.0772 
##  5 Karup  2015     7      755   0.320  
##  6 Karup  2015     8      627   0.266  
##  7 Karup  2015     9      328   0.139  
##  8 Karup  2015    10      324   0.137  
##  9 Karup  2016     3      128   0.0785 
## 10 Karup  2016     4       18   0.0110 
## # ℹ 125 more rows
…
