TFA exam - Guiding solution
…
res <- dat |> 
   group_by(River, Year, Month) |> 
   summarize(
      n_caught = n()
   ) |> 
   arrange(River, Year, Month) |> 
   group_by(River, Year) |> 
   mutate(cum_n_caught = cumsum(n_caught),
          cum_n_caught_pct = cum_n_caught / sum(n_caught)  
             ) |> 
   ungroup() |> 
   print()

## # A tibble: 135 × 6
##    River  Year Month n_caught cum_n_caught cum_n_caught_pct
##    <chr> <dbl> <dbl>    <int>        <int>            <dbl>
##  1 Karup  2015     3       88           88           0.0373
##  2 Karup  2015     4       15          103           0.0437
##  3 Karup  2015     5       40          143           0.0606
##  4 Karup  2015     6      182          325           0.138 
##  5 Karup  2015     7      755         1080           0.458 
##  6 Karup  2015     8      627         1707           0.724 
##  7 Karup  2015     9      328         2035           0.863 
##  8 Karup  2015    10      324         2359           1     
##  9 Karup  2016     3      128          128           0.0785
## 10 Karup  2016     4       18          146           0.0896
## # ℹ 125 more rows
…
   mutate(
      trend = Waterlevel - lag(Waterlevel, n = 1),
      trend = if_else(is.na(trend), 0, trend),
      trend_num = trend,
      trend = case_when(
         trend > 1 ~ "Increasing",
         trend < -1 ~ "Decreasing",
         TRUE ~ "None"
      )
   ) |> 
   ungroup() |> 
   arrange(River, Place, Date) |>
   print() 

## # A tibble: 241 × 6
##    Date       River Place  Waterlevel trend      trend_num
##    <date>     <chr> <chr>       <dbl> <chr>          <dbl>
##  1 2023-03-01 Karup Middle      -8.32 None          0     
##  2 2023-03-02 Karup Middle      -8.80 None         -0.482 
##  3 2023-03-03 Karup Middle      -9.18 None         -0.376 
##  4 2023-03-04 Karup Middle      -9.77 None         -0.593 
##  5 2023-03-05 Karup Middle     -10.5  None         -0.729 
##  6 2023-03-06 Karup Middle     -10.9  None         -0.425 
##  7 2023-03-07 Karup Middle      -8.67 Increasing    2.26  
##  8 2023-03-08 Karup Middle      -9.81 Decreasing   -1.15  
##  9 2023-03-09 Karup Middle     -11.3  Decreasing   -1.47  
## 10 2023-03-10 Karup Middle     -11.3  None          0.0359
## # ℹ 231 more rows
…
