…
### Exercise (calculating distances) {#ex-dist}

Consider zip codes in Jutland:


```r
# remotes::install_github("bss-osca/tfa/tfa-package", upgrade = FALSE)  # run to upgrade
library(tidyverse)
library(tfa)   
zips
#> # A tibble: 376 × 2
#>      Zip Area           
#>    <dbl> <chr>          
#>  1  5320 "Agedrup"      
#>  2  6753 "Agerb\xe6k"   
#>  3  6534 "Agerskov"     
#>  4  8961 "Alling\xe5bro"
#>  5  6051 "Almind"       
#>  6  8592 "Anholt"       
#>  7  8643 "Ans By"       
#>  8  6823 "Ansager"      
#>  9  9510 "Arden"        
#> 10  5466 "Asperup"      
#> # … with 366 more rows
```
…
