…
It is always a good idea to have a look at the file before you import from it. You can open it from R by using: 


```r
browseURL(xlsx_file)
```

Data can be read using:


```r
library(readxl)
xlsx <- read_excel(xlsx_file)   # reads the first sheet
xlsx
#> # A tibble: 150 × 5
#>    Sepal.Length Sepal.Width Petal.Length Petal.Width Species
#>           <dbl>       <dbl>        <dbl>       <dbl> <chr>  
#>  1          5.1         3.5          1.4         0.2 setosa 
#>  2          4.9         3            1.4         0.2 setosa 
#>  3          4.7         3.2          1.3         0.2 setosa 
#>  4          4.6         3.1          1.5         0.2 setosa 
#>  5          5           3.6          1.4         0.2 setosa 
#>  6          5.4         3.9          1.7         0.4 setosa 
#>  7          4.6         3.4          1.4         0.3 setosa 
#>  8          5           3.4          1.5         0.2 setosa 
#>  9          4.4         2.9          1.4         0.2 setosa 
#> 10          4.9         3.1          1.5         0.1 setosa 
#> # … with 140 more rows
xlsx <- read_excel(xlsx_file, sheet = 2)   # reads the second sheet
xlsx
#> # A tibble: 32 × 11
#>      mpg   cyl  disp    hp  drat    wt  qsec    vs    am  gear  carb
#>    <dbl> <dbl> <dbl> <dbl> <dbl> <dbl> <dbl> <dbl> <dbl> <dbl> <dbl>
#>  1  21       6  160    110  3.9   2.62  16.5     0     1     4     4
#>  2  21       6  160    110  3.9   2.88  17.0     0     1     4     4
#>  3  22.8     4  108     93  3.85  2.32  18.6     1     1     4     1
#>  4  21.4     6  258    110  3.08  3.22  19.4     1     0     3     1
#>  5  18.7     8  360    175  3.15  3.44  17.0     0     0     3     2
#>  6  18.1     6  225    105  2.76  3.46  20.2     1     0     3     1
#>  7  14.3     8  360    245  3.21  3.57  15.8     0     0     3     4
#>  8  24.4     4  147.    62  3.69  3.19  20       1     0     4     2
#>  9  22.8     4  141.    95  3.92  3.15  22.9     1     0     4     2
#> 10  19.2     6  168.   123  3.92  3.44  18.3     1     0     4     4
#> # … with 22 more rows
xlsx <- read_excel(xlsx_file, sheet = "quakes")   # reads a named sheet
xlsx
#> # A tibble: 1,000 × 5
#>      lat  long depth   mag stations
#>    <dbl> <dbl> <dbl> <dbl>    <dbl>
#>  1 -20.4  182.   562   4.8       41
#>  2 -20.6  181.   650   4.2       15
#>  3 -26    184.    42   5.4       43
#>  4 -18.0  182.   626   4.1       19
#>  5 -20.4  182.   649   4         11
#>  6 -19.7  184.   195   4         12
#>  7 -11.7  166.    82   4.8       43
#>  8 -28.1  182.   194   4.4       15
#>  9 -28.7  182.   211   4.7       35
#> 10 -17.5  180.   622   4.3       19
#> # … with 990 more rows
…
<div class="modal fade bs-example-modal-lg" id="BdWz4rUjqYLxjg5EM8dI" tabindex="-1" role="dialog" aria-labelledby="BdWz4rUjqYLxjg5EM8dI-title"><div class="modal-dialog modal-lg" role="document"><div class="modal-content"><div class="modal-header"><button type="button" class="close" data-dismiss="modal" aria-label="Close"><span aria-hidden="true">&times;</span></button><h4 class="modal-title" id="BdWz4rUjqYLxjg5EM8dI-title">Solution</h4></div><div class="modal-body">

```r
nurses %>%
   mutate(across(where(is.character), ~str_c('"', .x, '"'))) 
#> # A tibble: 32 × 2
#>    name           experience
#>    <chr>               <dbl>
#>  1 "\"Anne\""             11
#>  2 "\"Bethanie\""          4
#>  3 "\"Betsy\""             2
#>  4 "\"Cathy\""             2
#>  5 "\"Cecilia\""           9
#>  6 "\"Chris\""            11
#>  7 "\"Cindy\""             5
#>  8 "\"David\""             1
#>  9 "\"Debbie\""            7
#> 10 "\"Dee\""               3
#> # … with 22 more rows
```
…
</div><div class="modal-footer"><button class="btn btn-default" data-dismiss="modal">Close</button></div></div></div></div><button class="btn btn-default btn-xs" style="float:right" data-toggle="modal" data-target="#Xjzn1U8FFy2vtZgJjlYd">Hint 1</button>

2) Transform all character columns in `nurses` so they start and end with `"`. Some hints are given in Hint 1. 



<div class="modal fade bs-example-modal-lg" id="oJRV8pPDpUc0BwtWJADQ" tabindex="-1" role="dialog" aria-labelledby="oJRV8pPDpUc0BwtWJADQ-title"><div class="modal-dialog modal-lg" role="document"><div class="modal-content"><div class="modal-header"><button type="button" class="close" data-dismiss="modal" aria-label="Close"><span aria-hidden="true">&times;</span></button><h4 class="modal-title" id="oJRV8pPDpUc0BwtWJADQ-title">Solution</h4></div><div class="modal-body">

```r
nurses %>%
   mutate(across(where(is.character), ~str_c('"', .x, '"'))) %>% 
   unite("tuple", everything(), sep = ", ", remove = FALSE)
#> # A tibble: 32 × 3
#>    tuple             name           experience
#>    <chr>             <chr>               <dbl>
#>  1 "\"Anne\", 11"    "\"Anne\""             11
#>  2 "\"Bethanie\", 4" "\"Bethanie\""          4
#>  3 "\"Betsy\", 2"    "\"Betsy\""             2
#>  4 "\"Cathy\", 2"    "\"Cathy\""             2
#>  5 "\"Cecilia\", 9"  "\"Cecilia\""           9
#>  6 "\"Chris\", 11"   "\"Chris\""            11
#>  7 "\"Cindy\", 5"    "\"Cindy\""             5
#>  8 "\"David\", 1"    "\"David\""             1
#>  9 "\"Debbie\", 7"   "\"Debbie\""            7
#> 10 "\"Dee\", 3"      "\"Dee\""               3
#> # … with 22 more rows
```
…
</div><div class="modal-footer"><button class="btn btn-default" data-dismiss="modal">Close</button></div></div></div></div><button class="btn btn-default btn-xs" style="float:right" data-toggle="modal" data-target="#bZmSDLHs5lRtvQopJX8I">Hint</button>

3) Unite all columns into a new column named `tuple` where each column is separated with `,`. Hint: have a look at the `unite` function. All columns can be selected using `everything()`.




<div class="modal fade bs-example-modal-lg" id="nVg1m9e8Xf7VR8OuYHyh" tabindex="-1" role="dialog" aria-labelledby="nVg1m9e8Xf7VR8OuYHyh-title"><div class="modal-dialog modal-lg" role="document"><div class="modal-content"><div class="modal-header"><button type="button" class="close" data-dismiss="modal" aria-label="Close"><span aria-hidden="true">&times;</span></button><h4 class="modal-title" id="nVg1m9e8Xf7VR8OuYHyh-title">Solution</h4></div><div class="modal-body">

```r
nurses %>%
   mutate(across(where(is.character), ~str_c('"', .x, '"'))) %>% 
   unite("tuple", everything(), sep = ", ", remove = FALSE) %>% 
   mutate(tuple = str_c("<", tuple, ">"))
#> # A tibble: 32 × 3
#>    tuple               name           experience
#>    <chr>               <chr>               <dbl>
#>  1 "<\"Anne\", 11>"    "\"Anne\""             11
#>  2 "<\"Bethanie\", 4>" "\"Bethanie\""          4
#>  3 "<\"Betsy\", 2>"    "\"Betsy\""             2
#>  4 "<\"Cathy\", 2>"    "\"Cathy\""             2
#>  5 "<\"Cecilia\", 9>"  "\"Cecilia\""           9
#>  6 "<\"Chris\", 11>"   "\"Chris\""            11
#>  7 "<\"Cindy\", 5>"    "\"Cindy\""             5
#>  8 "<\"David\", 1>"    "\"David\""             1
#>  9 "<\"Debbie\", 7>"   "\"Debbie\""            7
#> 10 "<\"Dee\", 3>"      "\"Dee\""               3
#> # … with 22 more rows
```
…
