Module 15 Fitting probability distributions | Tools for Analytics (TFA)
…
Let us consider the data set demand_goods containing demand for two different goods/products:

library(tfa)  # update to latest version using remotes::install_github("bss-osca/tfa/tfa-package", upgrade = FALSE) 
demand_goods
#> # A tibble: 362 × 3
#>    date                demand product
#>    <dttm>               <dbl>   <dbl>
#>  1 2016-01-01 00:00:00      8       1
#>  2 2016-01-06 00:00:00     10       1
#>  3 2016-01-08 00:00:00     10       1
#>  4 2016-01-11 00:00:00      7       1
#>  5 2016-01-22 00:00:00      9       1
#>  6 2016-02-01 00:00:00      8       1
#>  7 2016-02-05 00:00:00      8       1
#>  8 2016-02-06 00:00:00      7       1
#>  9 2016-02-13 00:00:00      9       1
#> 10 2016-02-14 00:00:00      8       1
#> # … with 352 more rows
#> # ℹ Use `print(n = ...)` to see more rows

The arrival of demands and demand size may follow a compound Poisson process which differ from a Poisson process by allowing more than a demand of one given an arrival. That is, the inter arrival times should still follow an exponential distribution. Let us find the inter arrival times between each order and try to fit it:

library(tidyverse)
datDf <- demand_goods %>% 
  group_by(product) %>% 
  mutate(between = as.numeric(date - lag(date), units="days")) %>% 
  print()
#> # A tibble: 362 × 4
#> # Groups:   product [2]
#>    date                demand product between
#>    <dttm>               <dbl>   <dbl>   <dbl>
#>  1 2016-01-01 00:00:00      8       1      NA
#>  2 2016-01-06 00:00:00     10       1       5
#>  3 2016-01-08 00:00:00     10       1       2
#>  4 2016-01-11 00:00:00      7       1       3
#>  5 2016-01-22 00:00:00      9       1      11
#>  6 2016-02-01 00:00:00      8       1      10
#>  7 2016-02-05 00:00:00      8       1       4
#>  8 2016-02-06 00:00:00      7       1       1
#>  9 2016-02-13 00:00:00      9       1       7
#> 10 2016-02-14 00:00:00      8       1       1
#> # … with 352 more rows
#> # ℹ Use `print(n = ...)` to see more rows
…
