Module 14 Data visualization using ggplot | Tools for Analytics (TFA)
…
In this exercise, we will demonstrate how relatively simple ggplot2 code can create insightful and aesthetically pleasing plots. As motivation we will create plots that help us better understand trends in world health and economics.

Hans Rosling was the co-founder of the Gapminder Foundation, an organization dedicated to educating the public by using data to dispel common myths about the so-called developing world. Hans Rosling conveyed actual data-based trends in a dramatic way of his own, using effective data visualization. Here we will try to answer two questions:

Is it a fair characterization of today’s world to say it is divided into Western rich nations and the developing world in Africa, Asia, and Latin America?

Has income inequality across countries worsened during the last 40 years?

To answer these questions, we will be using the gapminder dataset provided in the dslabs package. This dataset was created using a number of spreadsheets available from the Gapminder Foundation. You can access the table like this:

library(tidyverse)
library(dslabs)
data(gapminder)
gapminder %>% as_tibble()
#> # A tibble: 10,545 × 9
#>    country      year infant_mortality life_expectancy fertility population      gdp continent region
#>    <fct>       <int>            <dbl>           <dbl>     <dbl>      <dbl>    <dbl> <fct>     <fct> 
#>  1 Albania      1960            115.             62.9      6.19    1636054 NA       Europe    South…
#>  2 Algeria      1960            148.             47.5      7.65   11124892  1.38e10 Africa    North…
#>  3 Angola       1960            208              36.0      7.32    5270844 NA       Africa    Middl…
#>  4 Antigua an…  1960             NA              63.0      4.43      54681 NA       Americas  Carib…
#>  5 Argentina    1960             59.9            65.4      3.11   20619075  1.08e11 Americas  South…
#>  6 Armenia      1960             NA              66.9      4.55    1867396 NA       Asia      Weste…
#>  7 Aruba        1960             NA              65.7      4.82      54208 NA       Americas  Carib…
#>  8 Australia    1960             20.3            70.9      3.45   10292328  9.67e10 Oceania   Austr…
#>  9 Austria      1960             37.3            68.8      2.7     7065525  5.24e10 Europe    Weste…
#> 10 Azerbaijan   1960             NA              61.3      5.57    3897889 NA       Asia      Weste…
#> # ℹ 10,535 more rows
…
We calculate the total number of cases per day, cumulative numbers and days since first record:

dat <- coronavirus %>%
  group_by(country, date, type) %>% 
  summarise(tot_cases = sum(cases)) %>%
  group_by(country, type) %>% 
  arrange(date) %>%
  mutate(cumulative_cases = cumsum(tot_cases)) %>%
  ungroup() %>%
  mutate(
    days_elapsed = as.numeric(date - min(date)),
    year = year(date)
  ) %>% print()
#> # A tibble: 650,637 × 7
#>    country     date       type      tot_cases cumulative_cases days_elapsed  year
#>    <chr>       <date>     <chr>         <dbl>            <dbl>        <dbl> <dbl>
#>  1 Afghanistan 2020-01-22 confirmed         0                0            0  2020
#>  2 Afghanistan 2020-01-22 death             0                0            0  2020
#>  3 Afghanistan 2020-01-22 recovery          0                0            0  2020
#>  4 Albania     2020-01-22 confirmed         0                0            0  2020
#>  5 Albania     2020-01-22 death             0                0            0  2020
#>  6 Albania     2020-01-22 recovery          0                0            0  2020
#>  7 Algeria     2020-01-22 confirmed         0                0            0  2020
#>  8 Algeria     2020-01-22 death             0                0            0  2020
#>  9 Algeria     2020-01-22 recovery          0                0            0  2020
#> 10 Andorra     2020-01-22 confirmed         0                0            0  2020
#> # ℹ 650,627 more rows
×

Solution

dat %>% 
  group_by(date, type) %>% 
  summarise(tot_cases = sum(tot_cases)) %>% print() %>% 
  ggplot(aes(x = date, y = tot_cases)) +
  geom_col() + 
  facet_grid(rows = vars(type), scales = "free") +
  labs(
    title = "Number of Covid 19 cases per day",
    y = "cases"
  )
#> # A tibble: 3,237 × 3
#> # Groups:   date [1,079]
#>    date       type      tot_cases
#>    <date>     <chr>         <dbl>
#>  1 2020-01-22 confirmed       557
#>  2 2020-01-22 death            17
#>  3 2020-01-22 recovery         30
#>  4 2020-01-23 confirmed       100
#>  5 2020-01-23 death             1
#>  6 2020-01-23 recovery          2
#>  7 2020-01-24 confirmed       287
#>  8 2020-01-24 death             8
#>  9 2020-01-24 recovery          7
#> 10 2020-01-25 confirmed       493
#> # ℹ 3,227 more rows
…
First you have to filter type and country

Close

Hint 1

Plot a lineplot of the cumulative number of deaths as a function of days elapsed for the selected countries. Use country as color aesthetic.

Since the countries have different population sizes, we would like to calculate some numbers relative to the population size. First we need population sizes for each country. They are given in the dataset world_pop in the tfa package:

world_pop <- tfa::world_pop %>%
  filter(country %in% countries) %>% 
  print()
#> # A tibble: 1,505 × 3
#>    country  year       pop
#>    <chr>   <dbl>     <dbl>
#>  1 China    1800 321675013
#>  2 China    1801 324408862
#>  3 China    1802 327165946
#>  4 China    1803 329946461
#>  5 China    1804 332750607
#>  6 China    1805 335578586
#>  7 China    1806 338430598
#>  8 China    1807 341306850
#>  9 China    1808 344207546
#> 10 China    1809 347132894
#> # ℹ 1,495 more rows

We can join the datasets using:

dat <- dat %>% 
  filter(country %in% countries) %>% 
  left_join(world_pop) %>% 
  print()
#> # A tibble: 16,185 × 8
#>    country date       type      tot_cases cumulative_cases days_elapsed  year        pop
#>    <chr>   <date>     <chr>         <dbl>            <dbl>        <dbl> <dbl>      <dbl>
#>  1 China   2020-01-22 confirmed       548              548            0  2020 1424548266
#>  2 China   2020-01-22 death            17               17            0  2020 1424548266
#>  3 China   2020-01-22 recovery         28               28            0  2020 1424548266
#>  4 Denmark 2020-01-22 confirmed         0                0            0  2020    5796800
#>  5 Denmark 2020-01-22 death             0                0            0  2020    5796800
#>  6 Denmark 2020-01-22 recovery          0                0            0  2020    5796800
#>  7 France  2020-01-22 confirmed         0                0            0  2020   65721165
#>  8 France  2020-01-22 death             0                0            0  2020   65721165
#>  9 France  2020-01-22 recovery          0                0            0  2020   65721165
#> 10 Italy   2020-01-22 confirmed         0                0            0  2020   59132073
#> # ℹ 16,175 more rows
…
