Module 11 Introduction to tidyverse and RMarkdown | Tools for Analytics (TFA)
…
#>   <chr> <dbl>
#> 1 Lars     23
#> 2 Susan    56
#> 3 Hans     45
tbl2 <- tibble(x = 1:3, y = list(1:5, 1:10, 1:20))
tbl2
#> # A tibble: 3 × 2
#>       x y         
#>   <int> <list>    
#> 1     1 <int [5]> 
#> 2     2 <int [10]>
#> 3     3 <int [20]>
tbl3 <- as_tibble(mtcars)
tbl3
#> # A tibble: 32 × 11
#>      mpg   cyl  disp    hp  drat    wt  qsec    vs    am  gear  carb
#>    <dbl> <dbl> <dbl> <dbl> <dbl> <dbl> <dbl> <dbl> <dbl> <dbl> <dbl>
#>  1  21       6  160    110  3.9   2.62  16.5     0     1     4     4
#>  2  21       6  160    110  3.9   2.88  17.0     0     1     4     4
#>  3  22.8     4  108     93  3.85  2.32  18.6     1     1     4     1
#>  4  21.4     6  258    110  3.08  3.22  19.4     1     0     3     1
#>  5  18.7     8  360    175  3.15  3.44  17.0     0     0     3     2
#>  6  18.1     6  225    105  2.76  3.46  20.2     1     0     3     1
#>  7  14.3     8  360    245  3.21  3.57  15.8     0     0     3     4
#>  8  24.4     4  147.    62  3.69  3.19  20       1     0     4     2
#>  9  22.8     4  141.    95  3.92  3.15  22.9     1     0     4     2
#> 10  19.2     6  168.   123  3.92  3.44  18.3     1     0     4     4
#> # ℹ 22 more rows
…
Solution

Add a line of text with the result.

11.6.2 Exercise (tibbles)

Solve this exercise using an R script file.

×

Solution

airquality %>% as_tibble()
#> # A tibble: 153 × 6
#>    Ozone Solar.R  Wind  Temp Month   Day
#>    <int>   <int> <dbl> <int> <int> <int>
#>  1    41     190   7.4    67     5     1
#>  2    36     118   8      72     5     2
#>  3    12     149  12.6    74     5     3
#>  4    18     313  11.5    62     5     4
#>  5    NA      NA  14.3    56     5     5
#>  6    28      NA  14.9    66     5     6
#>  7    23     299   8.6    65     5     7
#>  8    19      99  13.8    59     5     8
#>  9     8      19  20.1    61     5     9
#> 10    NA     194   8.6    69     5    10
#> # ℹ 143 more rows

Close

Solution

Convert the dataset airquality to a tibble.

×

Solution

airquality %>% as_tibble()
#> # A tibble: 153 × 6
#>    Ozone Solar.R  Wind  Temp Month   Day
#>    <int>   <int> <dbl> <int> <int> <int>
#>  1    41     190   7.4    67     5     1
#>  2    36     118   8      72     5     2
#>  3    12     149  12.6    74     5     3
#>  4    18     313  11.5    62     5     4
#>  5    NA      NA  14.3    56     5     5
#>  6    28      NA  14.9    66     5     6
#>  7    23     299   8.6    65     5     7
#>  8    19      99  13.8    59     5     8
#>  9     8      19  20.1    61     5     9
#> 10    NA     194   8.6    69     5    10
#> # ℹ 143 more rows
…
