Module 13 Transforming data | Tools for Analytics (TFA)
…
Below you will find a set of exercises. Always have a look at the exercises before you meet in your study group and try to solve them yourself. Are you stuck, see the help page. Some of the solutions to each exercise can be seen by pressing the button at each question. Beware, you will not learn by giving up too early. Put some effort into finding a solution! Always practice using shortcuts in RStudio (see Tools > Keyboard Shortcuts Help).

Go to the Tools for Analytics workspace and download/export the TM13 project. Open it on your laptop and have a look at the files in the exercises folder which can be used as a starting point.

13.5.1 Exercise (gapminder)

Use the exercise R markdown template to solve this exercise (File > New File > R Markdown…, select From template and then TFA Exercise).

The gapminder data set provides values for life expectancy, GDP per capita, and population, every five years, from 1952 to 2007 for 142 countries. The data can be loaded using the gapminder package:

library(gapminder)
data(gapminder, package = "gapminder")
gapminder
#> # A tibble: 1,704 × 6
#>    country     continent  year lifeExp      pop gdpPercap
#>    <fct>       <fct>     <int>   <dbl>    <int>     <dbl>
#>  1 Afghanistan Asia       1952    28.8  8425333      779.
#>  2 Afghanistan Asia       1957    30.3  9240934      821.
#>  3 Afghanistan Asia       1962    32.0 10267083      853.
#>  4 Afghanistan Asia       1967    34.0 11537966      836.
#>  5 Afghanistan Asia       1972    36.1 13079460      740.
#>  6 Afghanistan Asia       1977    38.4 14880372      786.
#>  7 Afghanistan Asia       1982    39.9 12881816      978.
#>  8 Afghanistan Asia       1987    40.8 13867957      852.
#>  9 Afghanistan Asia       1992    41.7 16317921      649.
#> 10 Afghanistan Asia       1997    41.8 22227415      635.
#> # … with 1,694 more rows
#> # ℹ Use `print(n = ...)` to see more rows
…
Close

Solution

        b) all rows for Rwanda after year 1979,

×

Solution

gapminder %>%  
  filter(country %in% c("Rwanda", "Afghanistan", "France"))
#> # A tibble: 36 × 6
#>    country     continent  year lifeExp      pop gdpPercap
#>    <fct>       <fct>     <int>   <dbl>    <int>     <dbl>
#>  1 Afghanistan Asia       1952    28.8  8425333      779.
#>  2 Afghanistan Asia       1957    30.3  9240934      821.
#>  3 Afghanistan Asia       1962    32.0 10267083      853.
#>  4 Afghanistan Asia       1967    34.0 11537966      836.
#>  5 Afghanistan Asia       1972    36.1 13079460      740.
#>  6 Afghanistan Asia       1977    38.4 14880372      786.
#>  7 Afghanistan Asia       1982    39.9 12881816      978.
#>  8 Afghanistan Asia       1987    40.8 13867957      852.
#>  9 Afghanistan Asia       1992    41.7 16317921      649.
#> 10 Afghanistan Asia       1997    41.8 22227415      635.
#> # … with 26 more rows
#> # ℹ Use `print(n = ...)` to see more rows
Close

Solution

        c) all rows for Rwanda, Afghanistan or France.

Select columns

×

Solution

gapminder %>% 
  select(year, lifeExp)
#> # A tibble: 1,704 × 2
#>     year lifeExp
#>    <int>   <dbl>
#>  1  1952    28.8
#>  2  1957    30.3
#>  3  1962    32.0
#>  4  1967    34.0
#>  5  1972    36.1
#>  6  1977    38.4
#>  7  1982    39.9
#>  8  1987    40.8
#>  9  1992    41.7
#> 10  1997    41.8
#> # … with 1,694 more rows
#> # ℹ Use `print(n = ...)` to see more rows

Close

Solution

        a) year and life expectancy,

×

Solution

gapminder %>% 
  select(country, gdpPercap)
#> # A tibble: 1,704 × 2
#>    country     gdpPercap
#>    <fct>           <dbl>
#>  1 Afghanistan      779.
#>  2 Afghanistan      821.
#>  3 Afghanistan      853.
#>  4 Afghanistan      836.
#>  5 Afghanistan      740.
#>  6 Afghanistan      786.
#>  7 Afghanistan      978.
#>  8 Afghanistan      852.
#>  9 Afghanistan      649.
#> 10 Afghanistan      635.
#> # … with 1,694 more rows
#> # ℹ Use `print(n = ...)` to see more rows
Close

Solution

        b) country and GDP per capita.

×

Solution

gapminder %>% 
   filter((gdpPercap > 40000 & continent == "Europe") | (gdpPercap < 400 & continent == "Africa")) %>% 
   # print(n=Inf) %>%   # if want to see the intermediate results
   select(continent, country, gdpPercap) # %>% print(n=Inf)
#> # A tibble: 21 × 3
#>    continent country           gdpPercap
#>    <fct>     <fct>                 <dbl>
#>  1 Africa    Burundi                339.
#>  2 Africa    Burundi                380.
#>  3 Africa    Burundi                355.
#>  4 Africa    Congo, Dem. Rep.       312.
#>  5 Africa    Congo, Dem. Rep.       241.
#>  6 Africa    Congo, Dem. Rep.       278.
#>  7 Africa    Equatorial Guinea      376.
#>  8 Africa    Eritrea                329.
#>  9 Africa    Eritrea                344.
#> 10 Africa    Eritrea                381.
#> # … with 11 more rows
#> # ℹ Use `print(n = ...)` to see more rows
…
Close

Hint

Subset your data set to find all rows with GDP per capita greater than 40000 in Europe or with GDP per capita less than 500 in Africa.

×

Solution

gapminder %>%
  mutate(gdp = pop * gdpPercap)
#> # A tibble: 1,704 × 7
#>    country     continent  year lifeExp      pop gdpPercap          gdp
#>    <fct>       <fct>     <int>   <dbl>    <int>     <dbl>        <dbl>
#>  1 Afghanistan Asia       1952    28.8  8425333      779.  6567086330.
#>  2 Afghanistan Asia       1957    30.3  9240934      821.  7585448670.
#>  3 Afghanistan Asia       1962    32.0 10267083      853.  8758855797.
#>  4 Afghanistan Asia       1967    34.0 11537966      836.  9648014150.
#>  5 Afghanistan Asia       1972    36.1 13079460      740.  9678553274.
#>  6 Afghanistan Asia       1977    38.4 14880372      786. 11697659231.
#>  7 Afghanistan Asia       1982    39.9 12881816      978. 12598563401.
#>  8 Afghanistan Asia       1987    40.8 13867957      852. 11820990309.
#>  9 Afghanistan Asia       1992    41.7 16317921      649. 10595901589.
#> 10 Afghanistan Asia       1997    41.8 22227415      635. 14121995875.
#> # … with 1,694 more rows
#> # ℹ Use `print(n = ...)` to see more rows
…
Close

Hint 1

Use mutate to calculate GDP per capita relative to mean GDP per capita in Denmark over the whole period (gdpPercap divided by the mean of Danish gdpPercap). Have a look at the calculated data. Does the numbers seem reasonable? I perceive Denmark to be a “high GDP” country, so I predict that the distribution of gdpPercapRel is located below 1, possibly even well below.

Use arrange to order

×

Solution

gapminder %>% 
  arrange(year, country)
#> # A tibble: 1,704 × 6
#>    country     continent  year lifeExp      pop gdpPercap
#>    <fct>       <fct>     <int>   <dbl>    <int>     <dbl>
#>  1 Afghanistan Asia       1952    28.8  8425333      779.
#>  2 Albania     Europe     1952    55.2  1282697     1601.
#>  3 Algeria     Africa     1952    43.1  9279525     2449.
#>  4 Angola      Africa     1952    30.0  4232095     3521.
#>  5 Argentina   Americas   1952    62.5 17876956     5911.
#>  6 Australia   Oceania    1952    69.1  8691212    10040.
#>  7 Austria     Europe     1952    66.8  6927772     6137.
#>  8 Bahrain     Asia       1952    50.9   120447     9867.
#>  9 Bangladesh  Asia       1952    37.5 46886859      684.
#> 10 Belgium     Europe     1952    68    8730405     8343.
#> # … with 1,694 more rows
#> # ℹ Use `print(n = ...)` to see more rows

Close

Solution

        a) data by year then country, as opposed to current by country then year,

×

Solution

gapminder %>%
  filter(year == 2007) %>%
  arrange(lifeExp)
#> # A tibble: 142 × 6
#>    country                  continent  year lifeExp      pop gdpPercap
#>    <fct>                    <fct>     <int>   <dbl>    <int>     <dbl>
#>  1 Swaziland                Africa     2007    39.6  1133066     4513.
#>  2 Mozambique               Africa     2007    42.1 19951656      824.
#>  3 Zambia                   Africa     2007    42.4 11746035     1271.
#>  4 Sierra Leone             Africa     2007    42.6  6144562      863.
#>  5 Lesotho                  Africa     2007    42.6  2012649     1569.
#>  6 Angola                   Africa     2007    42.7 12420476     4797.
#>  7 Zimbabwe                 Africa     2007    43.5 12311143      470.
#>  8 Afghanistan              Asia       2007    43.8 31889923      975.
#>  9 Central African Republic Africa     2007    44.7  4369038      706.
#> 10 Liberia                  Africa     2007    45.7  3193942      415.
#> # … with 132 more rows
#> # ℹ Use `print(n = ...)` to see more rows

Close

Solution

        b) data from 2007, sorted on life expectancy,

×

Solution

gapminder %>%
  filter(year == 2007) %>%
  arrange(desc(lifeExp))
#> # A tibble: 142 × 6
#>    country          continent  year lifeExp       pop gdpPercap
#>    <fct>            <fct>     <int>   <dbl>     <int>     <dbl>
#>  1 Japan            Asia       2007    82.6 127467972    31656.
#>  2 Hong Kong, China Asia       2007    82.2   6980412    39725.
#>  3 Iceland          Europe     2007    81.8    301931    36181.
#>  4 Switzerland      Europe     2007    81.7   7554661    37506.
#>  5 Australia        Oceania    2007    81.2  20434176    34435.
#>  6 Spain            Europe     2007    80.9  40448191    28821.
#>  7 Sweden           Europe     2007    80.9   9031088    33860.
#>  8 Israel           Asia       2007    80.7   6426679    25523.
#>  9 France           Europe     2007    80.7  61083916    30470.
#> 10 Canada           Americas   2007    80.7  33390141    36319.
#> # … with 132 more rows
#> # ℹ Use `print(n = ...)` to see more rows
Close

Solution

        c) data from 2007, sorted on life expectancy in descending order. Hint: use desc() inside arrange.

Use select to

×

Solution

gapminder %>% 
  select(yr = year, everything())
#> # A tibble: 1,704 × 6
#>       yr country     continent lifeExp      pop gdpPercap
#>    <int> <fct>       <fct>       <dbl>    <int>     <dbl>
#>  1  1952 Afghanistan Asia         28.8  8425333      779.
#>  2  1957 Afghanistan Asia         30.3  9240934      821.
#>  3  1962 Afghanistan Asia         32.0 10267083      853.
#>  4  1967 Afghanistan Asia         34.0 11537966      836.
#>  5  1972 Afghanistan Asia         36.1 13079460      740.
#>  6  1977 Afghanistan Asia         38.4 14880372      786.
#>  7  1982 Afghanistan Asia         39.9 12881816      978.
#>  8  1987 Afghanistan Asia         40.8 13867957      852.
#>  9  1992 Afghanistan Asia         41.7 16317921      649.
#> 10  1997 Afghanistan Asia         41.8 22227415      635.
#> # … with 1,694 more rows
#> # ℹ Use `print(n = ...)` to see more rows

Close

Solution

        a) rename year to yr and keep all other columns (the select helper everything may be used),

×

Solution

gapminder %>% 
  select(-pop)
#> # A tibble: 1,704 × 5
#>    country     continent  year lifeExp gdpPercap
#>    <fct>       <fct>     <int>   <dbl>     <dbl>
#>  1 Afghanistan Asia       1952    28.8      779.
#>  2 Afghanistan Asia       1957    30.3      821.
#>  3 Afghanistan Asia       1962    32.0      853.
#>  4 Afghanistan Asia       1967    34.0      836.
#>  5 Afghanistan Asia       1972    36.1      740.
#>  6 Afghanistan Asia       1977    38.4      786.
#>  7 Afghanistan Asia       1982    39.9      978.
#>  8 Afghanistan Asia       1987    40.8      852.
#>  9 Afghanistan Asia       1992    41.7      649.
#> 10 Afghanistan Asia       1997    41.8      635.
#> # … with 1,694 more rows
#> # ℹ Use `print(n = ...)` to see more rows

Close

Solution

        b) remove pop,

×

Solution

gapminder %>% 
  select(year, pop, everything())
#> # A tibble: 1,704 × 6
#>     year      pop country     continent lifeExp gdpPercap
#>    <int>    <int> <fct>       <fct>       <dbl>     <dbl>
#>  1  1952  8425333 Afghanistan Asia         28.8      779.
#>  2  1957  9240934 Afghanistan Asia         30.3      821.
#>  3  1962 10267083 Afghanistan Asia         32.0      853.
#>  4  1967 11537966 Afghanistan Asia         34.0      836.
#>  5  1972 13079460 Afghanistan Asia         36.1      740.
#>  6  1977 14880372 Afghanistan Asia         38.4      786.
#>  7  1982 12881816 Afghanistan Asia         39.9      978.
#>  8  1987 13867957 Afghanistan Asia         40.8      852.
#>  9  1992 16317921 Afghanistan Asia         41.7      649.
#> 10  1997 22227415 Afghanistan Asia         41.8      635.
#> # … with 1,694 more rows
#> # ℹ Use `print(n = ...)` to see more rows
…
Solution

        d) minimum and maximum life expectancies seen by year in Asia.

×

Solution

gapminder %>% 
  group_by(country) %>%                 # group by country
  select(country, year, lifeExp) %>%    # select relevant columns
  arrange(year, .by_group = TRUE) %>%   # make sure that data is sorted correct
  mutate(lifeExp_gain = lifeExp - first(lifeExp)) %>%       
  filter(year < 1963)                   # just for nice printing
#> # A tibble: 426 × 4
#> # Groups:   country [142]
#>    country      year lifeExp lifeExp_gain
#>    <fct>       <int>   <dbl>        <dbl>
#>  1 Afghanistan  1952    28.8         0   
#>  2 Afghanistan  1957    30.3         1.53
#>  3 Afghanistan  1962    32.0         3.20
#>  4 Albania      1952    55.2         0   
#>  5 Albania      1957    59.3         4.05
#>  6 Albania      1962    64.8         9.59
#>  7 Algeria      1952    43.1         0   
#>  8 Algeria      1957    45.7         2.61
#>  9 Algeria      1962    48.3         5.23
#> 10 Angola       1952    30.0         0   
#> # … with 416 more rows
#> # ℹ Use `print(n = ...)` to see more rows
…
Close

Solution

        b) all of the children named “Sea”.

Use Boolean operators to return only the rows that contain:

×

Solution

babynames %>% 
  filter(name == "Sue", sex == "M")
#> # A tibble: 52 × 5
#>     year sex   name      n       prop
#>    <dbl> <chr> <chr> <int>      <dbl>
#>  1  1917 M     Sue       7 0.0000073 
#>  2  1927 M     Sue       5 0.0000043 
#>  3  1928 M     Sue       5 0.00000438
#>  4  1930 M     Sue       5 0.00000443
#>  5  1931 M     Sue       6 0.00000561
#>  6  1932 M     Sue       7 0.00000652
#>  7  1933 M     Sue       7 0.00000686
#>  8  1934 M     Sue      14 0.0000132 
#>  9  1935 M     Sue      13 0.0000122 
#> 10  1936 M     Sue       9 0.00000846
#> # … with 42 more rows
#> # ℹ Use `print(n = ...)` to see more rows

Close

Solution

        a) boys named Sue,

×

Solution

babynames %>% 
  filter(year == 1880, n == 5 | n == 6)
#> # A tibble: 455 × 5
#>     year sex   name        n      prop
#>    <dbl> <chr> <chr>   <int>     <dbl>
#>  1  1880 F     Abby        6 0.0000615
#>  2  1880 F     Aileen      6 0.0000615
#>  3  1880 F     Alba        6 0.0000615
#>  4  1880 F     Alda        6 0.0000615
#>  5  1880 F     Alla        6 0.0000615
#>  6  1880 F     Alverta     6 0.0000615
#>  7  1880 F     Ara         6 0.0000615
#>  8  1880 F     Ardelia     6 0.0000615
#>  9  1880 F     Ardella     6 0.0000615
#> 10  1880 F     Arrie       6 0.0000615
#> # … with 445 more rows
#> # ℹ Use `print(n = ...)` to see more rows

Close

Solution

        b) names that were used by exactly 5 or 6 children in 1880,

×

Solution

babynames %>% 
  filter(name %in% c("Acura", "Lexus", "Yugo"))
#> # A tibble: 57 × 5
#>     year sex   name      n       prop
#>    <dbl> <chr> <chr> <int>      <dbl>
#>  1  1990 F     Lexus    36 0.0000175 
#>  2  1990 M     Lexus    12 0.00000558
#>  3  1991 F     Lexus   102 0.0000502 
#>  4  1991 M     Lexus    16 0.00000755
#>  5  1992 F     Lexus   193 0.0000963 
#>  6  1992 M     Lexus    25 0.0000119 
#>  7  1993 F     Lexus   285 0.000145  
#>  8  1993 M     Lexus    30 0.0000145 
#>  9  1994 F     Lexus   381 0.000195  
#> 10  1994 F     Acura     6 0.00000308
#> # … with 47 more rows
#> # ℹ Use `print(n = ...)` to see more rows
…
Close

Solution

What is the smallest value of n? What is the largest?

×

Solution

babynames %>% 
  filter(sex == "F", year == 2017) %>% 
  select(name, n) %>% 
  arrange(desc(n)) 
#> # A tibble: 18,309 × 2
#>    name          n
#>    <chr>     <int>
#>  1 Emma      19738
#>  2 Olivia    18632
#>  3 Ava       15902
#>  4 Isabella  15100
#>  5 Sophia    14831
#>  6 Mia       13437
#>  7 Charlotte 12893
#>  8 Amelia    11800
#>  9 Evelyn    10675
#> 10 Abigail   10551
#> # … with 18,299 more rows
#> # ℹ Use `print(n = ...)` to see more rows
…
Close

Hint

Write a sequence of functions that filters babynames to just the girls that were born in 2017, then select the name and n columns, then arrange the results so that the most popular names are near the top.

×

Solution

# for instance
babynames %>% 
  filter(sex == "M", name == "Lars")
#> # A tibble: 112 × 5
#>     year sex   name      n      prop
#>    <dbl> <chr> <chr> <int>     <dbl>
#>  1  1883 M     Lars      7 0.0000622
#>  2  1884 M     Lars      5 0.0000407
#>  3  1886 M     Lars      5 0.000042 
#>  4  1887 M     Lars      5 0.0000457
#>  5  1897 M     Lars      5 0.000041 
#>  6  1901 M     Lars      8 0.0000692
#>  7  1912 M     Lars      6 0.0000133
#>  8  1913 M     Lars      6 0.0000112
#>  9  1914 M     Lars     16 0.0000234
#> 10  1915 M     Lars     17 0.0000193
#> # … with 102 more rows
#> # ℹ Use `print(n = ...)` to see more rows
…
Close

Hint

Extract the rows where name == "Khaleesi". Then use summarise() to find the total number of children named Khaleesi and the first year Khaleesi appeared in the data.

×

Solution

babynames %>%
  group_by(name, sex) %>% 
  summarize(total = sum(n)) %>% 
  arrange(desc(total))
#> # A tibble: 107,973 × 3
#> # Groups:   name [97,310]
#>    name    sex     total
#>    <chr>   <chr>   <int>
#>  1 James   M     5150472
#>  2 John    M     5115466
#>  3 Robert  M     4814815
#>  4 Michael M     4350824
#>  5 Mary    F     4123200
#>  6 William M     4102604
#>  7 David   M     3611329
#>  8 Joseph  M     2603445
#>  9 Richard M     2563082
#> 10 Charles M     2386048
#> # … with 107,963 more rows
#> # ℹ Use `print(n = ...)` to see more rows
…
Close

Hint

Use group_by(), summarise(), and arrange() to display the ten most popular names. Compute popularity as the total number of children of a single gender given a name.

×

Solution

babynames %>% 
  group_by(year) %>% 
  summarise(total = sum(n))
#> # A tibble: 138 × 2
#>     year  total
#>    <dbl>  <int>
#>  1  1880 201484
#>  2  1881 192696
#>  3  1882 221533
#>  4  1883 216946
#>  5  1884 243462
#>  6  1885 240854
#>  7  1886 255317
#>  8  1887 247394
#>  9  1888 299473
#> 10  1889 288946
#> # … with 128 more rows
#> # ℹ Use `print(n = ...)` to see more rows
Close

Solution

Use group_by() to calculate the total number of children born each year over time.

×

Solution

babynames %>% 
  group_by(year, sex) %>% 
  mutate(rank = min_rank(desc(n))) %>% 
  arrange(year, sex, desc(prop))
#> # A tibble: 1,924,665 × 6
#> # Groups:   year, sex [276]
#>     year sex   name          n   prop  rank
#>    <dbl> <chr> <chr>     <int>  <dbl> <int>
#>  1  1880 F     Mary       7065 0.0724     1
#>  2  1880 F     Anna       2604 0.0267     2
#>  3  1880 F     Emma       2003 0.0205     3
#>  4  1880 F     Elizabeth  1939 0.0199     4
#>  5  1880 F     Minnie     1746 0.0179     5
#>  6  1880 F     Margaret   1578 0.0162     6
#>  7  1880 F     Ida        1472 0.0151     7
#>  8  1880 F     Alice      1414 0.0145     8
#>  9  1880 F     Bertha     1320 0.0135     9
#> 10  1880 F     Sarah      1288 0.0132    10
#> # … with 1,924,655 more rows
#> # ℹ Use `print(n = ...)` to see more rows
…
