Module 12 Importing and exporting data | Tools for Analytics (TFA)
…
There are different packages in R for reading and writing to Excel. We will use the readxl package for reading Excel files which is a part of tidyverse. The package supports both the legacy .xls format and the modern xml-based .xlsx format. Let us use one of the example files provided by the package:

xlsx_file <- system.file("extdata/datasets.xlsx", package = "readxl")

It is always a good idea to have a look at the file before you import from it. You can open it from R by using:

browseURL(xlsx_file)

Data can be read using:

library(readxl)
xlsx <- read_excel(xlsx_file)   # reads the first sheet
xlsx
#> # A tibble: 32 × 11
#>      mpg   cyl  disp    hp  drat    wt  qsec    vs    am  gear  carb
#>    <dbl> <dbl> <dbl> <dbl> <dbl> <dbl> <dbl> <dbl> <dbl> <dbl> <dbl>
#>  1  21       6  160    110  3.9   2.62  16.5     0     1     4     4
#>  2  21       6  160    110  3.9   2.88  17.0     0     1     4     4
#>  3  22.8     4  108     93  3.85  2.32  18.6     1     1     4     1
#>  4  21.4     6  258    110  3.08  3.22  19.4     1     0     3     1
#>  5  18.7     8  360    175  3.15  3.44  17.0     0     0     3     2
#>  6  18.1     6  225    105  2.76  3.46  20.2     1     0     3     1
#>  7  14.3     8  360    245  3.21  3.57  15.8     0     0     3     4
#>  8  24.4     4  147.    62  3.69  3.19  20       1     0     4     2
#>  9  22.8     4  141.    95  3.92  3.15  22.9     1     0     4     2
#> 10  19.2     6  168.   123  3.92  3.44  18.3     1     0     4     4
#> # ℹ 22 more rows
xlsx <- read_excel(xlsx_file, sheet = 2)   # reads the second sheet
xlsx
#> # A tibble: 71 × 2
#>    weight feed     
#>     <dbl> <chr>    
#>  1    179 horsebean
#>  2    160 horsebean
#>  3    136 horsebean
#>  4    227 horsebean
#>  5    217 horsebean
#>  6    168 horsebean
#>  7    108 horsebean
#>  8    124 horsebean
#>  9    143 horsebean
#> 10    140 horsebean
#> # ℹ 61 more rows
xlsx <- read_excel(xlsx_file, sheet = "quakes")   # reads a named sheet
xlsx
#> # A tibble: 1,000 × 5
#>      lat  long depth   mag stations
#>    <dbl> <dbl> <dbl> <dbl>    <dbl>
#>  1 -20.4  182.   562   4.8       41
#>  2 -20.6  181.   650   4.2       15
#>  3 -26    184.    42   5.4       43
#>  4 -18.0  182.   626   4.1       19
#>  5 -20.4  182.   649   4         11
#>  6 -19.7  184.   195   4         12
#>  7 -11.7  166.    82   4.8       43
#>  8 -28.1  182.   194   4.4       15
#>  9 -28.7  182.   211   4.7       35
#> 10 -17.5  180.   622   4.3       19
#> # ℹ 990 more rows
…
Load datasets

# remotes::install_github("bss-osca/tfa-package", dependencies = FALSE)  # if tfa not installed
library(tfa)
library(tidyverse)
nurses <- read_csv(system.file("extdata/nurses.csv", package = "tfa"))
shifts <- read_csv(system.file("extdata/shifts.csv", package = "tfa"))

×

Solution

nurses |>
   mutate(across(where(is.character), ~str_c('"', .x, '"'))) 
#> # A tibble: 32 × 2
#>    name           experience
#>    <chr>               <dbl>
#>  1 "\"Anne\""             11
#>  2 "\"Bethanie\""          4
#>  3 "\"Betsy\""             2
#>  4 "\"Cathy\""             2
#>  5 "\"Cecilia\""           9
#>  6 "\"Chris\""            11
#>  7 "\"Cindy\""             5
#>  8 "\"David\""             1
#>  9 "\"Debbie\""            7
#> 10 "\"Dee\""               3
#> # ℹ 22 more rows
…
Close

Hint 1

Transform all character columns in nurses so they start and end with ". Some hints are given in Hint 1.

×

Solution

nurses |>
   mutate(across(where(is.character), ~str_c('"', .x, '"'))) |> 
   unite("tuple", everything(), sep = ", ", remove = FALSE)
#> # A tibble: 32 × 3
#>    tuple             name           experience
#>    <chr>             <chr>               <dbl>
#>  1 "\"Anne\", 11"    "\"Anne\""             11
#>  2 "\"Bethanie\", 4" "\"Bethanie\""          4
#>  3 "\"Betsy\", 2"    "\"Betsy\""             2
#>  4 "\"Cathy\", 2"    "\"Cathy\""             2
#>  5 "\"Cecilia\", 9"  "\"Cecilia\""           9
#>  6 "\"Chris\", 11"   "\"Chris\""            11
#>  7 "\"Cindy\", 5"    "\"Cindy\""             5
#>  8 "\"David\", 1"    "\"David\""             1
#>  9 "\"Debbie\", 7"   "\"Debbie\""            7
#> 10 "\"Dee\", 3"      "\"Dee\""               3
#> # ℹ 22 more rows
…
Close

Hint

Unite all columns into a new column named tuple where each column is separated with ,. Hint: have a look at the unite function. All columns can be selected using everything().

×

Solution

nurses |>
   mutate(across(where(is.character), ~str_c('"', .x, '"'))) |> 
   unite("tuple", everything(), sep = ", ", remove = FALSE) |> 
   mutate(tuple = str_c("<", tuple, ">"))
#> # A tibble: 32 × 3
#>    tuple               name           experience
#>    <chr>               <chr>               <dbl>
#>  1 "<\"Anne\", 11>"    "\"Anne\""             11
#>  2 "<\"Bethanie\", 4>" "\"Bethanie\""          4
#>  3 "<\"Betsy\", 2>"    "\"Betsy\""             2
#>  4 "<\"Cathy\", 2>"    "\"Cathy\""             2
#>  5 "<\"Cecilia\", 9>"  "\"Cecilia\""           9
#>  6 "<\"Chris\", 11>"   "\"Chris\""            11
#>  7 "<\"Cindy\", 5>"    "\"Cindy\""             5
#>  8 "<\"David\", 1>"    "\"David\""             1
#>  9 "<\"Debbie\", 7>"   "\"Debbie\""            7
#> 10 "<\"Dee\", 3>"      "\"Dee\""               3
#> # ℹ 22 more rows
…
