Module 6 Introduction to tidyverse and R Markdown | Tools for Analytics (TFA)
…
#>   <chr> <dbl>
#> 1 Lars     23
#> 2 Susan    56
#> 3 Hans     45
tbl2 <- tibble(x = 1:3, y = list(1:5, 1:10, 1:20))
tbl2
#> # A tibble: 3 x 2
#>       x y         
#>   <int> <list>    
#> 1     1 <int [5]> 
#> 2     2 <int [10]>
#> 3     3 <int [20]>
tbl3 <- as_tibble(mtcars)
tbl3
#> # A tibble: 33 x 12
#>      mpg   cyl  disp    hp  drat    wt  qsec    vs    am  gear  carb col  
#>    <dbl> <dbl> <dbl> <dbl> <dbl> <dbl> <dbl> <dbl> <dbl> <dbl> <dbl> <chr>
#>  1  21       6  160    110  3.9   2.62  16.5     0     1     4     4 <NA> 
#>  2  21       6  160    110  3.9   2.88  17.0     0     1     4     4 green
#>  3  22.8     4  108     93  3.85  2.32  18.6     1     1     4     1 blue 
#>  4  21.4     6  258    110  3.08  3.22  19.4     1     0     3     1 red  
#>  5  18.7     8  360    175  3.15  3.44  17.0     0     0     3     2 <NA> 
#>  6  18.1     6  225    105  2.76  3.46  20.2     1     0     3     1 blue 
#>  7  14.3     8  360    245  3.21  3.57  15.8     0     0     3     4 green
#>  8  24.4     4  147.    62  3.69  3.19  20       1     0     4     2 blue 
#>  9  22.8     4  141.    95  3.92  3.15  22.9     1     0     4     2 red  
#> 10  19.2     6  168.   123  3.92  3.44  18.3     1     0     4     4 red  
#> # … with 23 more rows
…
