Module 9 Data visualization using ggplot | Tools for Analytics (TFA)
…
In this exercise, we will demonstrate how relatively simple ggplot2 code can create insightful and aesthetically pleasing plots. As motivation we will create plots that help us better understand trends in world health and economics.

Hans Rosling was the co-founder of the Gapminder Foundation, an organization dedicated to educating the public by using data to dispel common myths about the so-called developing world. Hans Rosling conveyed actual data-based trends in a dramatic way of his own, using effective data visualization. Here we will try to answer two questions:

Is it a fair characterization of today’s world to say it is divided into western rich nations and the developing world in Africa, Asia, and Latin America?

Has income inequality across countries worsened during the last 40 years?

To answer these questions, we will be using the gapminder dataset provided in the dslabs package. This dataset was created using a number of spreadsheets available from the Gapminder Foundation. You can access the table like this:

library(tidyverse)
library(dslabs)
data(gapminder)
gapminder %>% as_tibble()
#> # A tibble: 10,545 x 9
#>    country    year infant_mortality life_expectancy fertility population      gdp continent region  
#>    <fct>     <int>            <dbl>           <dbl>     <dbl>      <dbl>    <dbl> <fct>     <fct>   
#>  1 Albania    1960            115.             62.9      6.19    1636054 NA       Europe    Souther…
#>  2 Algeria    1960            148.             47.5      7.65   11124892  1.38e10 Africa    Norther…
#>  3 Angola     1960            208              36.0      7.32    5270844 NA       Africa    Middle …
#>  4 Antigua …  1960             NA              63.0      4.43      54681 NA       Americas  Caribbe…
#>  5 Argentina  1960             59.9            65.4      3.11   20619075  1.08e11 Americas  South A…
#>  6 Armenia    1960             NA              66.9      4.55    1867396 NA       Asia      Western…
#>  7 Aruba      1960             NA              65.7      4.82      54208 NA       Americas  Caribbe…
#>  8 Australia  1960             20.3            70.9      3.45   10292328  9.67e10 Oceania   Austral…
#>  9 Austria    1960             37.3            68.8      2.7     7065525  5.24e10 Europe    Western…
#> 10 Azerbaij…  1960             NA              61.3      5.57    3897889 NA       Asia      Western…
#> # … with 10,535 more rows
…
