Module 7 Importing and exporting data | Tools for Analytics (TFA)
…
There are different packages in R for reading and writing to Excel. We will use the readxl package for reading Excel files which is a part of tidyverse. The package supports both the legacy .xls format and the modern xml-based .xlsx format. Let us use one of the example files provided by the package:

xlsx_file <- system.file("extdata/datasets.xlsx", package = "readxl")

It is always a good idea to have a look at the file before you import from it. You can open it from R by using

browseURL(xlsx_file)

Data can be read using

library(readxl)
xlsx <- read_excel(xlsx_file)   # reads the first sheet
xlsx
#> # A tibble: 150 x 5
#>    Sepal.Length Sepal.Width Petal.Length Petal.Width Species
#>           <dbl>       <dbl>        <dbl>       <dbl> <chr>  
#>  1          5.1         3.5          1.4         0.2 setosa 
#>  2          4.9         3            1.4         0.2 setosa 
#>  3          4.7         3.2          1.3         0.2 setosa 
#>  4          4.6         3.1          1.5         0.2 setosa 
#>  5          5           3.6          1.4         0.2 setosa 
#>  6          5.4         3.9          1.7         0.4 setosa 
#>  7          4.6         3.4          1.4         0.3 setosa 
#>  8          5           3.4          1.5         0.2 setosa 
#>  9          4.4         2.9          1.4         0.2 setosa 
#> 10          4.9         3.1          1.5         0.1 setosa 
#> # … with 140 more rows
xlsx <- read_excel(xlsx_file, sheet = 2)   # reads the second sheet
xlsx
#> # A tibble: 32 x 11
#>      mpg   cyl  disp    hp  drat    wt  qsec    vs    am  gear  carb
#>    <dbl> <dbl> <dbl> <dbl> <dbl> <dbl> <dbl> <dbl> <dbl> <dbl> <dbl>
#>  1  21       6  160    110  3.9   2.62  16.5     0     1     4     4
#>  2  21       6  160    110  3.9   2.88  17.0     0     1     4     4
#>  3  22.8     4  108     93  3.85  2.32  18.6     1     1     4     1
#>  4  21.4     6  258    110  3.08  3.22  19.4     1     0     3     1
#>  5  18.7     8  360    175  3.15  3.44  17.0     0     0     3     2
#>  6  18.1     6  225    105  2.76  3.46  20.2     1     0     3     1
#>  7  14.3     8  360    245  3.21  3.57  15.8     0     0     3     4
#>  8  24.4     4  147.    62  3.69  3.19  20       1     0     4     2
#>  9  22.8     4  141.    95  3.92  3.15  22.9     1     0     4     2
#> 10  19.2     6  168.   123  3.92  3.44  18.3     1     0     4     4
#> # … with 22 more rows
xlsx <- read_excel(xlsx_file, sheet = "quakes")   # reads a named sheet
xlsx
#> # A tibble: 1,000 x 5
#>      lat  long depth   mag stations
#>    <dbl> <dbl> <dbl> <dbl>    <dbl>
#>  1 -20.4  182.   562   4.8       41
#>  2 -20.6  181.   650   4.2       15
#>  3 -26    184.    42   5.4       43
#>  4 -18.0  182.   626   4.1       19
#>  5 -20.4  182.   649   4         11
#>  6 -19.7  184.   195   4         12
#>  7 -11.7  166.    82   4.8       43
#>  8 -28.1  182.   194   4.4       15
#>  9 -28.7  182.   211   4.7       35
#> 10 -17.5  180.   622   4.3       19
#> # … with 990 more rows
…
7.4 Google Sheets

You can import and export to Google sheets using the googlesheets4 package in tidyverse. To read and write data you in general need to be logged in as a Google user. The package will ask you when needed. However if you only want to read data from a public sheet you can use gs4_deauth to skip this:

library(googlesheets4)
gs4_deauth()

To read data use:

url <- "https://docs.google.com/spreadsheets/d/1U6Cf_qEOhiR9AZqTqS3mbMF3zt2db48ZP5v3rkrAEJY/edit#gid=780868077"
read_sheet(url)
#> # A tibble: 624 x 6
#>    country continent  year lifeExp      pop gdpPercap
#>    <chr>   <chr>     <dbl>   <dbl>    <dbl>     <dbl>
#>  1 Algeria Africa     1952    43.1  9279525     2449.
#>  2 Algeria Africa     1957    45.7 10270856     3014.
#>  3 Algeria Africa     1962    48.3 11000948     2551.
#>  4 Algeria Africa     1967    51.4 12760499     3247.
#>  5 Algeria Africa     1972    54.5 14760787     4183.
#>  6 Algeria Africa     1977    58.0 17152804     4910.
#>  7 Algeria Africa     1982    61.4 20033753     5745.
#>  8 Algeria Africa     1987    65.8 23254956     5681.
#>  9 Algeria Africa     1992    67.7 26298373     5023.
#> 10 Algeria Africa     1997    69.2 29072015     4797.
#> # … with 614 more rows
read_sheet(url, sheet = 3)
#> # A tibble: 396 x 6
#>    country     continent  year lifeExp      pop gdpPercap
#>    <chr>       <chr>     <dbl>   <dbl>    <dbl>     <dbl>
#>  1 Afghanistan Asia       1952    28.8  8425333      779.
#>  2 Afghanistan Asia       1957    30.3  9240934      821.
#>  3 Afghanistan Asia       1962    32.0 10267083      853.
#>  4 Afghanistan Asia       1967    34.0 11537966      836.
#>  5 Afghanistan Asia       1972    36.1 13079460      740.
#>  6 Afghanistan Asia       1977    38.4 14880372      786.
#>  7 Afghanistan Asia       1982    39.9 12881816      978.
#>  8 Afghanistan Asia       1987    40.8 13867957      852.
#>  9 Afghanistan Asia       1992    41.7 16317921      649.
#> 10 Afghanistan Asia       1997    41.8 22227415      635.
#> # … with 386 more rows
…
