Module 4 Loops and conditionals | Tools for Analytics (TFA)
…
Close

Hint

Solve Questions 1 and 2 using a vectorized alternative.

4.6.3 Exercise (calculating distances)

Consider zip codes in Jutland:

# remotes::install_github("bss-osca/tfa/tfa-package", upgrade = FALSE)  # run to upgrade
library(tidyverse)
library(tfa)   
zips
#> # A tibble: 376 x 2
#>      Zip Area           
#>    <dbl> <chr>          
#>  1  5320 "Agedrup"      
#>  2  6753 "Agerb\xe6k"   
#>  3  6534 "Agerskov"     
#>  4  8961 "Alling\xe5bro"
#>  5  6051 "Almind"       
#>  6  8592 "Anholt"       
#>  7  8643 "Ans By"       
#>  8  6823 "Ansager"      
#>  9  9510 "Arden"        
#> 10  5466 "Asperup"      
#> # … with 366 more rows
…
